\relax 
\@writefile{toc}{\contentsline {section}{\numberline {1}Introduction}{2}}
\@writefile{toc}{\contentsline {section}{\numberline {2}Repository Structure}{2}}
\citation{GITSCM}
\@writefile{toc}{\contentsline {section}{\numberline {3}Why GIT?}{3}}
\@writefile{toc}{\contentsline {subsection}{\numberline {3.1}Distributed Development}{4}}
\@writefile{toc}{\contentsline {subsection}{\numberline {3.2}Pull Requests}{4}}
\@writefile{toc}{\contentsline {subsection}{\numberline {3.3}Community}{4}}
\@writefile{toc}{\contentsline {subsection}{\numberline {3.4}Faster Release Cycle}{4}}
\citation{GITFUSION}
\@writefile{toc}{\contentsline {subsection}{\numberline {3.5}For Designers}{5}}
\@writefile{toc}{\contentsline {section}{\numberline {4}Migration Strategy}{5}}
\@writefile{toc}{\contentsline {subsection}{\numberline {4.1}Big Bang vs. Stepwise}{5}}
\@writefile{toc}{\contentsline {subsection}{\numberline {4.2}Migrating from different VCS}{5}}
\@writefile{toc}{\contentsline {subsubsection}{\numberline {4.2.1}Migrating from Perforce}{5}}
\citation{SVNTOOL}
\newlabel{perforce]}{{1}{6}}
\@writefile{lol}{\contentsline {lstlisting}{\numberline {1}Migration config from Perforce}{6}}
\newlabel{perforceclonegitnew]}{{2}{6}}
\@writefile{lol}{\contentsline {lstlisting}{\numberline {2}Cloning the new Repository}{6}}
\@writefile{toc}{\contentsline {subsubsection}{\numberline {4.2.2}Migrating from SVN}{6}}
\newlabel{svnusers]}{{3}{6}}
\@writefile{lol}{\contentsline {lstlisting}{\numberline {3}users.txt}{6}}
\newlabel{svnusers]}{{4}{7}}
\@writefile{lol}{\contentsline {lstlisting}{\numberline {4}Building a user template}{7}}
\newlabel{initialpull]}{{5}{7}}
\@writefile{lol}{\contentsline {lstlisting}{\numberline {5}Initial pull}{7}}
\newlabel{fetchcommits]}{{6}{7}}
\@writefile{lol}{\contentsline {lstlisting}{\numberline {6}Fetch all commits}{7}}
\newlabel{viewsvnbranches]}{{7}{7}}
\@writefile{lol}{\contentsline {lstlisting}{\numberline {7}View SVN branches}{7}}
\bibcite{GITFUSION}{1}
\newlabel{krb]}{{8}{8}}
\@writefile{lol}{\contentsline {lstlisting}{\numberline {8}Keeping remote branches}{8}}
\newlabel{clbft]}{{9}{8}}
\@writefile{lol}{\contentsline {lstlisting}{\numberline {9}Creating local branches for tags}{8}}
\newlabel{ctcr]}{{10}{8}}
\@writefile{lol}{\contentsline {lstlisting}{\numberline {10}Clone to clean repo}{8}}
\newlabel{klb]}{{11}{8}}
\@writefile{lol}{\contentsline {lstlisting}{\numberline {11}Keeping local branches}{8}}
\newlabel{ctcr]}{{12}{8}}
\@writefile{lol}{\contentsline {lstlisting}{\numberline {12}Remove the wrong remote}{8}}
\@writefile{toc}{\contentsline {section}{\numberline {5}Conclusion}{8}}
\bibcite{SUBGIT}{2}
\bibcite{GITSCM}{3}
